{
    "header": {
        "title": "A propos",
        "description": ["Ingénieur développeur depuis 5 ans et diplomé d'un Master Informatique, le développement d'application est quelque chose qui fait partie de mes préocupations depuis maintenant pas mal d'années. Ce site internet a pour but de mettre en avant les différentes compétences acquises durant mes études, mon travail, ou même durant mon temps libre."]
    },
        
    "additionalInfo": {
        "title": "Informations complémentaires",
        "info": [{
                "title": "Bitbucket",
                "description": ["Bitbucket est un service d'hébergement en ligne de projets, qui permet aussi bien à des professionnels qu'à des particuliers d'avoir un stockage et une gestion en ligne de leurs différents projets avec repository, wiki, suivi des incidents etc...",
                                "La majorité des projets visibles sur mon site personnel sont disponibles sur Bitbucket (y compris ce site même), avec pour la majorité la possibilité de télécharger le code source. Il existe de nombreuses alternatives comme SourceForge, mais la posibilité de créer des repositories privés sur Bitbucket est pour moi un plus appréciable."],
                "image": "bitbucket.png"
            }
            ,{"title": "LinkedIn",
                "description": ["LinkedIn est un réseau social professionnel créé en 2003 qui permet de construire et d’agréger son propre réseau. Ce type de réseau est très pratique pour se faire des contacts professionnels ou pour suivre les demandes d'emploi afin de se tenir au courant des technologies recherchée, ou pour simplement chercher un travail.",
                                "Il existe de nombreux autres services de ce genre (comme Viadeo), mais c'est sur celui-ci que je suis le plus souvent, et sur lequel je suis donc plus facilement joignable."],
                "image": "linkedin.png"
            }
            ,{"title": "Orchestra",
                "description": ["Orchestra est une plateforme dédiée au secteur du tourisme en mode SaaS. Elle permet aux professionnels de produire, administrer, distribuer et gérer une offre loisirs complète sur l’ensemble des canaux de distribution : séjours (packages), nuitées d’hôtels, billets d’avion, package dynamique, à la carte.", "En particulier, la plateforme Orchestra permet l’accès unifié en temps réel à l’offre de 125 sources intégrées (Tours Opérateurs, hébergeurs, croisiéristes…). Grâce à son architecture, Orchestra s’intègre dans le système d’information de ses clients."],
                "image": "orchestra.png"
            }
            ,{"title": "Infotel",
                "description": ["Infotel est une société de service informatique fondée en 1979 et qui possède aujourd'hui plus de 1500 collaborateurs. L'entreprise est un bon point d'entré dans le milieu professionnel car elle propose aux jeunes diplômés une formation complète avant la prise de poste. Comme pour toute société de services, il y a des avantages et des inconvénients, donc faire une longue carrière dans ce genre d'entreprise dépend de vos aspirations professionnelles."],
                "image": "infotel.png"
            }
            ,{"title": "IUT Reims Châlons-Charleville",
                "description": ["L'IUT Reims Châlons-Charleville est un Institut Universitaire de Technologie qui propose une variété de formations, dont un ensemble de formations en informatique. Suivant vos envies, il vous est possible de vous spécialiser dans le génie logiciel ou encore en imagerie. Ayant fait mes études là-bas, je recommande cet IUT qui propose beaucoup de sujets et on y apprend pas mal de choses. Et surtout, vous ferez beaucoup de pratique."],
                "image": "iut.png"
            }
        ]
    }
}
