{
    "name": "Daídalos",
    "background": "#5d3d3d",
    "description": ["Daídalos (previously called Project D) is a 3D FPS (First Person Shooter) mock-up developped in C++/OpenGL.",
                    "The game draws its inspiration froms games like the original Doom or Wolfenstein 3D, and offers an old school gameplay. It doesn't have the goal to revolutionize the genra, but to take efficient mechanisms in order to create a viable indie FPS.",
                    "The game principle is simple: confined in labyrinthic levels, you have to make your way through the creatures hanting these places, in order to come back alive. In order to do that, you'll find on your way different objects that will help you defeat your enemies.",
                    "Daídalos started as an educational project back in 2008 in order to learn 3D rendering."],
    "links": [{
                "label": "Télécharger (win32)",
                "url": "downloads/daidalos_win32_last.zip"
              }
    ],
    "images": {
        "main": "images/daidalos/daidalos_main.jpg",
        "slideshow": [{
            "label": "",
            "url": "images/daidalos/daidalos_1.jpg"
        },
        {
            "label": "",
            "url": "images/daidalos/daidalos_2.jpg"
        },
        {
            "label": "",
            "url": "images/daidalos/daidalos_3.jpg"
        },
        {
            "label": "",
            "url": "images/daidalos/daidalos_4.jpg"
        }]
    }
}